Week 02: CGM QC Features
…
A CGM day is only trustworthy if the sensor captured enough of it. A “valid day” needs at least 202 of the expected 288 five-minute readings (~70% coverage), which is the same completeness standard used in clinical CGM interpretation.

daily_qc <- cgm_final %>%
  group_by(person_id,date_local) %>%
  summarise(
    n_readings=n(),
    percent_complete=n()/288*100,
    valid_day=n_readings>=202,
    .groups="drop"
  )

daily_qc

# A tibble: 55 × 5
   person_id    date_local n_readings percent_complete valid_day
   <chr>        <date>          <int>            <dbl> <lgl>    
 1 AIREADI-1029 2023-09-07         35             12.2 FALSE    
 2 AIREADI-1029 2023-09-08        288            100   TRUE     
 3 AIREADI-1029 2023-09-09        288            100   TRUE     
 4 AIREADI-1029 2023-09-10        288            100   TRUE     
 5 AIREADI-1029 2023-09-11        288            100   TRUE     
 6 AIREADI-1029 2023-09-12        288            100   TRUE     
 7 AIREADI-1029 2023-09-13        288            100   TRUE     
 8 AIREADI-1029 2023-09-14        288            100   TRUE     
 9 AIREADI-1029 2023-09-15        288            100   TRUE     
10 AIREADI-1029 2023-09-16        288            100   TRUE     
# ℹ 45 more rows
…
    daytime_mean = mean(glucose[hour_local >= 6]),

    nighttime_mean = mean(glucose[hour_local < 6]),

    daytime_sd = sd(glucose[hour_local >= 6]),

    nighttime_sd = sd(glucose[hour_local < 6]),

    .groups="drop"

  )

participant_day_summary

# A tibble: 49 × 15
   person_id    date_local cleaned_readings percent_complete mean_glucose
   <chr>        <date>                <int>            <dbl>        <dbl>
 1 AIREADI-1029 2023-09-08              288            100           114.
 2 AIREADI-1029 2023-09-09              288            100           113.
 3 AIREADI-1029 2023-09-10              288            100           113.
 4 AIREADI-1029 2023-09-11              288            100           114.
 5 AIREADI-1029 2023-09-12              288            100           111.
 6 AIREADI-1029 2023-09-13              288            100           111.
 7 AIREADI-1029 2023-09-14              288            100           108.
 8 AIREADI-1029 2023-09-15              288            100           108.
 9 AIREADI-1029 2023-09-16              288            100           109.
10 AIREADI-1029 2023-09-17              229             79.5         105.
# ℹ 39 more rows
# ℹ 10 more variables: sd_glucose <dbl>, pct_70_180 <dbl>, pct_above_180 <dbl>,
#   pct_below_70 <dbl>, daytime_readings <int>, nighttime_readings <int>,
#   daytime_mean <dbl>, nighttime_mean <dbl>, daytime_sd <dbl>,
#   nighttime_sd <dbl>
…
8. Week 3 Preparation

Which participants have at least one valid local day?

unique(cgm_valid$person_id)

[1] "AIREADI-1029" "AIREADI-1042" "AIREADI-1046" "AIREADI-1054" "AIREADI-1055"

All five participants had at least one valid local CGM day.

Which local dates are valid for each participant?

valid_dates

# A tibble: 49 × 5
   person_id    date_local n_readings percent_complete valid_day
   <chr>        <date>          <int>            <dbl> <lgl>    
 1 AIREADI-1029 2023-09-08        288            100   TRUE     
 2 AIREADI-1029 2023-09-09        288            100   TRUE     
 3 AIREADI-1029 2023-09-10        288            100   TRUE     
 4 AIREADI-1029 2023-09-11        288            100   TRUE     
 5 AIREADI-1029 2023-09-12        288            100   TRUE     
 6 AIREADI-1029 2023-09-13        288            100   TRUE     
 7 AIREADI-1029 2023-09-14        288            100   TRUE     
 8 AIREADI-1029 2023-09-15        288            100   TRUE     
 9 AIREADI-1029 2023-09-16        288            100   TRUE     
10 AIREADI-1029 2023-09-17        229             79.5 TRUE     
# ℹ 39 more rows
…
